2.714836E+2	1.937863E-2
2.716043E+2	1.937863E-2
2.717249E+2	1.937863E-2
2.718456E+2	1.920468E-2
2.719662E+2	1.809136E-2
2.720868E+2	1.736075E-2
2.722074E+2	1.833490E-2
2.723279E+2	1.830011E-2
2.724485E+2	1.830011E-2
2.725690E+2	1.739554E-2
2.726895E+2	1.847406E-2
2.728100E+2	1.770866E-2
2.729305E+2	1.784782E-2
2.730509E+2	1.749991E-2
2.731714E+2	1.781303E-2
2.732918E+2	1.781303E-2
2.734122E+2	1.847406E-2
2.735326E+2	1.746512E-2
2.736529E+2	1.781303E-2
2.737733E+2	1.840448E-2
2.738936E+2	1.889156E-2
2.740139E+2	1.850885E-2
2.741342E+2	1.864802E-2
2.742544E+2	1.833490E-2
2.743747E+2	1.878718E-2
2.744949E+2	1.937863E-2
2.746151E+2	1.948300E-2
2.747353E+2	1.951780E-2
2.748555E+2	2.003966E-2
2.749757E+2	1.979612E-2
2.750958E+2	1.916988E-2
2.752159E+2	1.993529E-2
2.753360E+2	2.017883E-2
2.754561E+2	2.104860E-2
2.755762E+2	2.028320E-2
2.756962E+2	2.052674E-2
2.758162E+2	2.097902E-2
2.759362E+2	2.024841E-2
2.760562E+2	2.000487E-2
2.761762E+2	2.042236E-2
2.762962E+2	2.097902E-2
2.764161E+2	2.090944E-2
2.765360E+2	2.150089E-2
2.766559E+2	2.087465E-2
2.767758E+2	2.028320E-2
2.768957E+2	2.129214E-2
2.770155E+2	2.108339E-2
2.771353E+2	2.056153E-2
2.772551E+2	2.077027E-2
2.773749E+2	2.080507E-2
2.774947E+2	2.042236E-2
2.776144E+2	2.139651E-2
2.777342E+2	2.150089E-2
2.778539E+2	2.083986E-2
2.779736E+2	1.997008E-2
2.780932E+2	2.122256E-2
2.782129E+2	2.059632E-2
2.783325E+2	2.115298E-2
2.784522E+2	2.118777E-2
2.785718E+2	2.125735E-2
2.786913E+2	2.111819E-2
2.788109E+2	2.063111E-2
2.789304E+2	2.038757E-2
2.790500E+2	2.003966E-2
2.791695E+2	2.097902E-2
2.792890E+2	2.125735E-2
2.794084E+2	2.000487E-2
2.795279E+2	2.063111E-2
2.796473E+2	2.101381E-2
2.797668E+2	2.101381E-2
2.798862E+2	2.073548E-2
2.800055E+2	2.223150E-2
2.801249E+2	2.063111E-2
2.802442E+2	2.028320E-2
2.803636E+2	2.087465E-2
2.804829E+2	2.077027E-2
2.806022E+2	2.070069E-2
2.807214E+2	2.094423E-2
2.808407E+2	2.038757E-2
2.809599E+2	2.132693E-2
2.810791E+2	1.990050E-2
2.811983E+2	2.007445E-2
2.813175E+2	2.056153E-2
2.814366E+2	2.031799E-2
2.815558E+2	2.042236E-2
2.816749E+2	2.038757E-2
2.817940E+2	2.132693E-2
2.819131E+2	2.045715E-2
2.820322E+2	2.087465E-2
2.821512E+2	2.014404E-2
2.822702E+2	2.153568E-2
2.823892E+2	2.056153E-2
2.825082E+2	1.993529E-2
2.826272E+2	2.031799E-2
2.827462E+2	2.073548E-2
2.828651E+2	2.056153E-2
2.829840E+2	2.070069E-2
2.831029E+2	2.080507E-2
2.832218E+2	2.045715E-2
2.833406E+2	2.073548E-2
2.834595E+2	2.063111E-2
2.835783E+2	2.125735E-2
2.836971E+2	2.097902E-2
2.838159E+2	2.073548E-2
2.839347E+2	2.129214E-2
2.840534E+2	2.129214E-2
2.841722E+2	2.042236E-2
2.842909E+2	2.115298E-2
2.844096E+2	2.083986E-2
2.845282E+2	2.021362E-2
2.846469E+2	2.129214E-2
2.847655E+2	2.073548E-2
2.848842E+2	2.045715E-2
2.850028E+2	2.073548E-2
2.851213E+2	2.049195E-2
2.852399E+2	2.097902E-2
2.853585E+2	1.976133E-2
2.854770E+2	2.104860E-2
2.855955E+2	2.052674E-2
2.857140E+2	2.090944E-2
2.858325E+2	2.087465E-2
2.859509E+2	2.083986E-2
2.860693E+2	2.038757E-2
2.861878E+2	2.031799E-2
2.863062E+2	2.024841E-2
2.864245E+2	2.094423E-2
2.865429E+2	2.122256E-2
2.866612E+2	2.090944E-2
2.867796E+2	2.077027E-2
2.868979E+2	2.014404E-2
2.870162E+2	2.115298E-2
2.871344E+2	2.024841E-2
2.872527E+2	2.066590E-2
2.873709E+2	2.028320E-2
2.874891E+2	2.056153E-2
2.876073E+2	2.108339E-2
2.877255E+2	2.108339E-2
2.878437E+2	2.035278E-2
2.879618E+2	2.087465E-2
2.880799E+2	2.073548E-2
2.881980E+2	2.038757E-2
2.883161E+2	2.097902E-2
2.884342E+2	2.042236E-2
2.885522E+2	2.021362E-2
2.886702E+2	1.983092E-2
2.887883E+2	2.063111E-2
2.889062E+2	2.087465E-2
2.890242E+2	2.108339E-2
2.891422E+2	2.077027E-2
2.892601E+2	2.017883E-2
2.893780E+2	2.010924E-2
2.894959E+2	2.028320E-2
2.896138E+2	2.031799E-2
2.897317E+2	2.108339E-2
2.898495E+2	2.042236E-2
2.899673E+2	2.104860E-2
2.900851E+2	2.077027E-2
2.902029E+2	2.063111E-2
2.903207E+2	2.108339E-2
2.904384E+2	2.000487E-2
2.905562E+2	2.045715E-2
2.906739E+2	2.031799E-2
2.907916E+2	2.104860E-2
2.909093E+2	2.052674E-2
2.910269E+2	2.003966E-2
2.911446E+2	2.052674E-2
2.912622E+2	2.070069E-2
2.913798E+2	2.094423E-2
2.914974E+2	2.139651E-2
2.916149E+2	2.087465E-2
2.917325E+2	2.042236E-2
2.918500E+2	2.101381E-2
2.919675E+2	2.083986E-2
2.920850E+2	2.066590E-2
2.922025E+2	2.083986E-2
2.923199E+2	2.101381E-2
2.924374E+2	2.066590E-2
2.925548E+2	2.052674E-2
2.926722E+2	2.077027E-2
2.927896E+2	2.090944E-2
2.929069E+2	2.097902E-2
2.930243E+2	2.104860E-2
2.931416E+2	2.077027E-2
2.932589E+2	2.139651E-2
2.933762E+2	2.031799E-2
2.934935E+2	2.080507E-2
2.936107E+2	2.097902E-2
2.937280E+2	2.038757E-2
2.938452E+2	2.045715E-2
2.939624E+2	2.129214E-2
2.940795E+2	2.066590E-2
2.941967E+2	2.059632E-2
2.943138E+2	2.080507E-2
2.944310E+2	2.063111E-2
2.945481E+2	2.063111E-2
2.946652E+2	2.031799E-2
2.947822E+2	2.118777E-2
2.948993E+2	2.066590E-2
2.950163E+2	2.042236E-2
2.951333E+2	2.094423E-2
2.952503E+2	2.021362E-2
2.953673E+2	2.052674E-2
2.954842E+2	2.090944E-2
2.956012E+2	2.056153E-2
2.957181E+2	2.125735E-2
2.958350E+2	2.003966E-2
2.959519E+2	2.056153E-2
2.960687E+2	2.115298E-2
2.961856E+2	2.143131E-2
2.963024E+2	2.073548E-2
2.964192E+2	2.115298E-2
2.965360E+2	2.087465E-2
2.966528E+2	2.115298E-2
2.967695E+2	1.993529E-2
2.968862E+2	2.056153E-2
2.970030E+2	2.150089E-2
2.971197E+2	2.129214E-2
2.972363E+2	2.115298E-2
2.973530E+2	2.083986E-2
2.974696E+2	2.063111E-2
2.975863E+2	2.094423E-2
2.977029E+2	2.017883E-2
2.978194E+2	2.063111E-2
2.979360E+2	2.094423E-2
2.980526E+2	2.157047E-2
2.981691E+2	2.157047E-2
2.982856E+2	2.094423E-2
2.984021E+2	2.028320E-2
2.985186E+2	2.077027E-2
2.986350E+2	1.993529E-2
2.987515E+2	2.083986E-2
2.988679E+2	2.097902E-2
2.989843E+2	2.080507E-2
2.991007E+2	2.024841E-2
2.992170E+2	2.070069E-2
2.993334E+2	2.160526E-2
2.994497E+2	2.090944E-2
2.995660E+2	2.066590E-2
2.996823E+2	2.059632E-2
2.997986E+2	2.087465E-2
2.999148E+2	2.097902E-2
3.000310E+2	2.063111E-2
3.001473E+2	2.122256E-2
3.002634E+2	2.038757E-2
3.003796E+2	2.073548E-2
3.004958E+2	2.083986E-2
3.006119E+2	2.111819E-2
3.007280E+2	2.094423E-2
3.008442E+2	2.017883E-2
3.009602E+2	2.059632E-2
3.010763E+2	2.087465E-2
3.011924E+2	2.021362E-2
3.013084E+2	2.087465E-2
3.014244E+2	2.063111E-2
3.015404E+2	2.097902E-2
3.016564E+2	2.066590E-2
3.017723E+2	2.059632E-2
3.018883E+2	2.129214E-2
3.020042E+2	2.125735E-2
3.021201E+2	2.090944E-2
3.022360E+2	2.129214E-2
3.023518E+2	2.066590E-2
3.024677E+2	2.090944E-2
3.025835E+2	2.150089E-2
3.026993E+2	2.111819E-2
3.028151E+2	2.167484E-2
3.029309E+2	2.101381E-2
3.030466E+2	2.021362E-2
3.031623E+2	2.090944E-2
3.032781E+2	2.059632E-2
3.033938E+2	2.136172E-2
3.035094E+2	2.073548E-2
3.036251E+2	2.108339E-2
3.037407E+2	2.024841E-2
3.038564E+2	2.118777E-2
3.039720E+2	2.108339E-2
3.040875E+2	2.052674E-2
3.042031E+2	2.094423E-2
3.043187E+2	2.143131E-2
3.044342E+2	2.083986E-2
3.045497E+2	1.990050E-2
3.046652E+2	2.111819E-2
3.047807E+2	2.111819E-2
3.048961E+2	2.087465E-2
3.050116E+2	2.045715E-2
3.051270E+2	2.115298E-2
3.052424E+2	2.090944E-2
3.053578E+2	2.070069E-2
3.054731E+2	2.077027E-2
3.055885E+2	2.125735E-2
3.057038E+2	2.118777E-2
3.058191E+2	2.101381E-2
3.059344E+2	2.101381E-2
3.060497E+2	2.014404E-2
3.061649E+2	2.143131E-2
3.062802E+2	2.111819E-2
3.063954E+2	2.028320E-2
3.065106E+2	2.083986E-2
3.066257E+2	2.143131E-2
3.067409E+2	2.090944E-2
3.068560E+2	2.108339E-2
3.069712E+2	2.118777E-2
3.070863E+2	2.094423E-2
3.072014E+2	2.094423E-2
3.073164E+2	2.188359E-2
3.074315E+2	2.125735E-2
3.075465E+2	2.049195E-2
3.076615E+2	2.132693E-2
3.077765E+2	2.094423E-2
3.078915E+2	2.111819E-2
3.080064E+2	2.115298E-2
3.081214E+2	2.195317E-2
3.082363E+2	2.136172E-2
3.083512E+2	2.188359E-2
3.084661E+2	2.090944E-2
3.085809E+2	2.042236E-2
3.086958E+2	2.150089E-2
3.088106E+2	2.118777E-2
3.089254E+2	2.087465E-2
3.090402E+2	2.136172E-2
3.091550E+2	2.070069E-2
3.092697E+2	2.080507E-2
3.093845E+2	2.052674E-2
3.094992E+2	2.160526E-2
3.096139E+2	2.077027E-2
3.097286E+2	2.097902E-2
3.098432E+2	2.118777E-2
3.099579E+2	2.139651E-2
3.100725E+2	2.094423E-2
3.101871E+2	2.122256E-2
3.103017E+2	2.101381E-2
3.104162E+2	2.153568E-2
3.105308E+2	2.104860E-2
3.106453E+2	2.101381E-2
3.107598E+2	2.070069E-2
3.108743E+2	2.097902E-2
3.109888E+2	2.104860E-2
3.111033E+2	2.094423E-2
3.112177E+2	2.080507E-2
3.113321E+2	2.087465E-2
3.114465E+2	2.160526E-2
3.115609E+2	2.118777E-2
3.116753E+2	2.094423E-2
3.117896E+2	2.063111E-2
3.119039E+2	2.070069E-2
3.120182E+2	2.111819E-2
3.121325E+2	2.083986E-2
3.122468E+2	2.073548E-2
3.123611E+2	2.045715E-2
3.124753E+2	2.070069E-2
3.125895E+2	2.090944E-2
3.127037E+2	2.146610E-2
3.128179E+2	2.122256E-2
3.129320E+2	2.083986E-2
3.130462E+2	2.122256E-2
3.131603E+2	2.010924E-2
3.132744E+2	2.174442E-2
3.133885E+2	2.104860E-2
3.135026E+2	2.125735E-2
3.136166E+2	2.028320E-2
3.137307E+2	2.073548E-2
3.138447E+2	2.090944E-2
3.139587E+2	2.104860E-2
3.140726E+2	2.125735E-2
3.141866E+2	2.038757E-2
3.143005E+2	2.097902E-2
3.144145E+2	2.167484E-2
3.145284E+2	2.167484E-2
3.146422E+2	2.122256E-2
3.147561E+2	2.139651E-2
3.148699E+2	2.094423E-2
3.149838E+2	2.073548E-2
3.150976E+2	2.101381E-2
3.152114E+2	2.063111E-2
3.153251E+2	2.129214E-2
3.154389E+2	2.139651E-2
3.155526E+2	2.035278E-2
3.156663E+2	2.115298E-2
3.157800E+2	2.077027E-2
3.158937E+2	2.087465E-2
3.160074E+2	2.077027E-2
3.161210E+2	2.122256E-2
3.162347E+2	2.104860E-2
3.163483E+2	2.080507E-2
3.164618E+2	2.083986E-2
3.165754E+2	2.150089E-2
3.166890E+2	2.021362E-2
3.168025E+2	2.077027E-2
3.169160E+2	2.097902E-2
3.170295E+2	2.115298E-2
3.171430E+2	2.143131E-2
3.172564E+2	2.070069E-2
3.173699E+2	2.083986E-2
3.174833E+2	2.063111E-2
3.175967E+2	2.094423E-2
3.177101E+2	2.136172E-2
3.178234E+2	2.115298E-2
3.179368E+2	2.125735E-2
3.180501E+2	2.136172E-2
3.181634E+2	2.073548E-2
3.182767E+2	2.087465E-2
3.183900E+2	2.104860E-2
3.185032E+2	2.042236E-2
3.186165E+2	2.132693E-2
3.187297E+2	2.115298E-2
3.188429E+2	2.077027E-2
3.189561E+2	2.129214E-2
3.190692E+2	2.087465E-2
3.191824E+2	2.118777E-2
3.192955E+2	2.049195E-2
3.194086E+2	2.118777E-2
3.195217E+2	2.125735E-2
3.196348E+2	2.101381E-2
3.197478E+2	2.087465E-2
3.198608E+2	2.104860E-2
3.199739E+2	2.164005E-2
3.200868E+2	2.118777E-2
3.201998E+2	2.108339E-2
3.203128E+2	2.108339E-2
3.204257E+2	2.087465E-2
3.205386E+2	2.045715E-2
3.206515E+2	2.101381E-2
3.207644E+2	2.160526E-2
3.208773E+2	2.146610E-2
3.209901E+2	2.083986E-2
3.211030E+2	2.188359E-2
3.212158E+2	2.157047E-2
3.213286E+2	2.073548E-2
3.214413E+2	2.139651E-2
3.215541E+2	2.052674E-2
3.216668E+2	2.087465E-2
3.217795E+2	2.164005E-2
3.218922E+2	2.184880E-2
3.220049E+2	2.101381E-2
3.221176E+2	2.066590E-2
3.222302E+2	2.191838E-2
3.223429E+2	2.083986E-2
3.224555E+2	2.170963E-2
3.225680E+2	2.003966E-2
3.226806E+2	2.129214E-2
3.227932E+2	2.077027E-2
3.229057E+2	2.150089E-2
3.230182E+2	2.063111E-2
3.231307E+2	2.094423E-2
3.232432E+2	2.042236E-2
3.233556E+2	2.132693E-2
3.234681E+2	2.045715E-2
3.235805E+2	2.129214E-2
3.236929E+2	2.080507E-2
3.238053E+2	2.104860E-2
3.239176E+2	2.104860E-2
3.240300E+2	2.073548E-2
3.241423E+2	2.129214E-2
3.242546E+2	2.097902E-2
3.243669E+2	2.115298E-2
3.244792E+2	2.045715E-2
3.245915E+2	2.083986E-2
3.247037E+2	2.118777E-2
3.248159E+2	2.104860E-2
3.249281E+2	2.170963E-2
3.250403E+2	2.042236E-2
3.251524E+2	2.090944E-2
3.252646E+2	2.143131E-2
3.253767E+2	2.080507E-2
3.254888E+2	2.129214E-2
3.256009E+2	2.042236E-2
3.257130E+2	2.157047E-2
3.258250E+2	2.000487E-2
3.259371E+2	2.108339E-2
3.260491E+2	2.087465E-2
3.261611E+2	2.087465E-2
3.262730E+2	2.118777E-2
3.263850E+2	2.104860E-2
3.264969E+2	2.136172E-2
3.266089E+2	2.038757E-2
3.267208E+2	2.125735E-2
3.268327E+2	2.049195E-2
3.269445E+2	2.115298E-2
3.270564E+2	2.070069E-2
3.271682E+2	2.028320E-2
3.272800E+2	2.125735E-2
3.273918E+2	2.035278E-2
3.275036E+2	2.049195E-2
3.276153E+2	2.073548E-2
3.277271E+2	2.090944E-2
3.278388E+2	2.083986E-2
3.279505E+2	2.139651E-2
3.280622E+2	2.115298E-2
3.281738E+2	2.104860E-2
3.282855E+2	2.150089E-2
3.283971E+2	2.132693E-2
3.285087E+2	2.097902E-2
3.286203E+2	2.087465E-2
3.287318E+2	2.090944E-2
3.288434E+2	2.063111E-2
3.289549E+2	2.101381E-2
3.290664E+2	2.056153E-2
3.291779E+2	2.028320E-2
3.292894E+2	2.077027E-2
3.294009E+2	2.136172E-2
3.295123E+2	1.990050E-2
3.296237E+2	2.129214E-2
3.297351E+2	2.073548E-2
3.298465E+2	2.094423E-2
3.299579E+2	2.139651E-2
3.300692E+2	2.146610E-2
3.301806E+2	2.108339E-2
3.302919E+2	2.139651E-2
3.304032E+2	2.101381E-2
3.305144E+2	2.129214E-2
3.306257E+2	2.090944E-2
3.307369E+2	2.087465E-2
3.308482E+2	2.132693E-2
3.309594E+2	2.090944E-2
3.310705E+2	2.080507E-2
3.311817E+2	2.063111E-2
3.312928E+2	2.087465E-2
3.314040E+2	2.049195E-2
3.315151E+2	2.087465E-2
3.316262E+2	2.174442E-2
3.317372E+2	2.063111E-2
3.318483E+2	2.063111E-2
3.319593E+2	2.104860E-2
3.320703E+2	2.090944E-2
3.321813E+2	2.104860E-2
3.322923E+2	2.108339E-2
3.324033E+2	2.157047E-2
3.325142E+2	2.111819E-2
3.326251E+2	2.024841E-2
3.327360E+2	2.080507E-2
3.328469E+2	2.111819E-2
3.329578E+2	2.122256E-2
3.330686E+2	2.080507E-2
3.331795E+2	2.153568E-2
3.332903E+2	2.157047E-2
3.334011E+2	2.111819E-2
3.335118E+2	2.094423E-2
3.336226E+2	2.083986E-2
3.337333E+2	2.146610E-2
3.338440E+2	2.101381E-2
3.339547E+2	2.070069E-2
3.340654E+2	2.097902E-2
3.341761E+2	2.090944E-2
3.342867E+2	2.136172E-2
3.343974E+2	2.136172E-2
3.345080E+2	2.073548E-2
3.346185E+2	2.080507E-2
3.347291E+2	2.104860E-2
3.348397E+2	2.108339E-2
3.349502E+2	2.052674E-2
3.350607E+2	2.090944E-2
3.351712E+2	2.118777E-2
3.352817E+2	2.164005E-2
3.353921E+2	2.052674E-2
3.355026E+2	2.132693E-2
3.356130E+2	2.070069E-2
3.357234E+2	2.115298E-2
3.358338E+2	2.031799E-2
3.359442E+2	2.097902E-2
3.360545E+2	2.090944E-2
3.361648E+2	2.115298E-2
3.362752E+2	2.170963E-2
3.363854E+2	2.094423E-2
3.364957E+2	2.059632E-2
3.366060E+2	2.094423E-2
3.367162E+2	2.108339E-2
3.368264E+2	2.230108E-2
3.369366E+2	2.160526E-2
3.370468E+2	1.986571E-2
3.371570E+2	2.094423E-2
3.372671E+2	2.077027E-2
3.373772E+2	2.143131E-2
3.374874E+2	2.115298E-2
3.375974E+2	2.129214E-2
3.377075E+2	2.146610E-2
3.378176E+2	2.122256E-2
3.379276E+2	2.129214E-2
3.380376E+2	2.083986E-2
3.381476E+2	2.083986E-2
3.382576E+2	2.083986E-2
3.383675E+2	2.038757E-2
3.384775E+2	2.118777E-2
3.385874E+2	2.181401E-2
3.386973E+2	2.129214E-2
3.388072E+2	2.146610E-2
3.389171E+2	2.153568E-2
3.390269E+2	2.073548E-2
3.391367E+2	2.157047E-2
3.392466E+2	2.080507E-2
3.393563E+2	2.170963E-2
3.394661E+2	2.111819E-2
3.395759E+2	2.129214E-2
3.396856E+2	2.132693E-2
3.397953E+2	2.174442E-2
3.399050E+2	2.083986E-2
3.400147E+2	2.097902E-2
3.401244E+2	2.045715E-2
3.402340E+2	2.101381E-2
3.403437E+2	2.101381E-2
3.404533E+2	2.198796E-2
3.405628E+2	2.073548E-2
3.406724E+2	2.170963E-2
3.407820E+2	2.104860E-2
3.408915E+2	2.056153E-2
3.410010E+2	2.097902E-2
3.411105E+2	2.097902E-2
3.412200E+2	2.111819E-2
3.413295E+2	2.122256E-2
3.414389E+2	2.167484E-2
3.415483E+2	2.094423E-2
3.416577E+2	2.073548E-2
3.417671E+2	2.181401E-2
3.418765E+2	2.129214E-2
3.419858E+2	2.122256E-2
3.420952E+2	2.129214E-2
3.422045E+2	2.101381E-2
3.423138E+2	2.118777E-2
3.424230E+2	2.108339E-2
3.425323E+2	2.129214E-2
3.426415E+2	2.090944E-2
3.427507E+2	2.177922E-2
3.428599E+2	2.083986E-2
3.429691E+2	2.146610E-2
3.430783E+2	2.129214E-2
3.431874E+2	2.132693E-2
3.432966E+2	2.129214E-2
3.434057E+2	2.118777E-2
3.435148E+2	2.136172E-2
3.436238E+2	2.160526E-2
3.437329E+2	2.097902E-2
3.438419E+2	2.153568E-2
3.439509E+2	2.129214E-2
3.440599E+2	2.108339E-2
3.441689E+2	2.108339E-2
3.442779E+2	2.052674E-2
3.443868E+2	2.118777E-2
3.444957E+2	2.115298E-2
3.446046E+2	2.059632E-2
3.447135E+2	2.073548E-2
3.448224E+2	2.136172E-2
3.449312E+2	2.209234E-2
3.450401E+2	2.073548E-2
3.451489E+2	2.150089E-2
3.452577E+2	2.129214E-2
3.453665E+2	2.094423E-2
3.454752E+2	2.132693E-2
3.455839E+2	2.139651E-2
3.456927E+2	2.115298E-2
3.458014E+2	2.181401E-2
3.459100E+2	2.073548E-2
3.460187E+2	2.104860E-2
3.461274E+2	2.108339E-2
3.462360E+2	2.143131E-2
3.463446E+2	2.038757E-2
3.464532E+2	1.986571E-2
3.465618E+2	2.049195E-2
3.466703E+2	2.042236E-2
3.467788E+2	2.118777E-2
3.468874E+2	2.080507E-2
3.469959E+2	2.073548E-2
3.471043E+2	2.108339E-2
3.472128E+2	2.167484E-2
3.473212E+2	2.070069E-2
3.474297E+2	2.094423E-2
3.475381E+2	2.118777E-2
3.476465E+2	2.087465E-2
3.477548E+2	2.150089E-2
3.478632E+2	2.150089E-2
3.479715E+2	2.073548E-2
3.480798E+2	2.080507E-2
3.481881E+2	2.167484E-2
3.482964E+2	2.129214E-2
3.484046E+2	2.080507E-2
3.485129E+2	2.139651E-2
3.486211E+2	2.143131E-2
3.487293E+2	2.090944E-2
3.488375E+2	2.146610E-2
3.489456E+2	2.240546E-2
3.490538E+2	2.115298E-2
3.491619E+2	2.237066E-2
3.492700E+2	2.090944E-2
3.493781E+2	2.104860E-2
3.494862E+2	2.184880E-2
3.495942E+2	2.045715E-2
3.497023E+2	2.063111E-2
3.498103E+2	2.118777E-2
3.499183E+2	2.184880E-2
3.500263E+2	2.104860E-2
3.501342E+2	2.209234E-2
3.502422E+2	2.059632E-2
3.503501E+2	2.090944E-2
3.504580E+2	2.083986E-2
3.505659E+2	2.101381E-2
3.506738E+2	2.080507E-2
3.507816E+2	1.997008E-2
3.508894E+2	2.184880E-2
3.509972E+2	2.122256E-2
3.511050E+2	2.097902E-2
3.512128E+2	2.080507E-2
3.513206E+2	2.083986E-2
3.514283E+2	2.080507E-2
3.515360E+2	2.157047E-2
3.516437E+2	2.104860E-2
3.517514E+2	2.063111E-2
3.518591E+2	2.077027E-2
3.519667E+2	2.049195E-2
3.520744E+2	2.073548E-2
3.521820E+2	2.125735E-2
3.522896E+2	2.097902E-2
3.523971E+2	2.212713E-2
3.525047E+2	2.184880E-2
3.526122E+2	2.066590E-2
3.527197E+2	2.136172E-2
3.528272E+2	2.129214E-2
3.529347E+2	2.070069E-2
3.530422E+2	2.170963E-2
3.531496E+2	2.101381E-2
3.532570E+2	2.090944E-2
3.533644E+2	2.080507E-2
3.534718E+2	2.104860E-2
3.535792E+2	2.070069E-2
3.536865E+2	2.146610E-2
3.537939E+2	2.115298E-2
3.539012E+2	2.125735E-2
3.540085E+2	2.170963E-2
3.541158E+2	2.077027E-2
3.542230E+2	2.143131E-2
3.543303E+2	2.115298E-2
3.544375E+2	2.111819E-2
3.545447E+2	2.094423E-2
3.546519E+2	2.143131E-2
3.547590E+2	2.177922E-2
3.548662E+2	2.160526E-2
3.549733E+2	2.077027E-2
3.550804E+2	2.139651E-2
3.551875E+2	2.122256E-2
3.552946E+2	2.139651E-2
3.554016E+2	2.063111E-2
3.555087E+2	2.146610E-2
3.556157E+2	2.129214E-2
3.557227E+2	2.146610E-2
3.558297E+2	2.122256E-2
3.559366E+2	2.223150E-2
3.560436E+2	2.101381E-2
3.561505E+2	2.157047E-2
3.562574E+2	2.164005E-2
3.563643E+2	2.177922E-2
3.564711E+2	2.111819E-2
3.565780E+2	2.094423E-2
3.566848E+2	2.164005E-2
3.567916E+2	2.077027E-2
3.568984E+2	2.139651E-2
3.570052E+2	2.188359E-2
3.571120E+2	2.177922E-2
3.572187E+2	2.122256E-2
3.573254E+2	2.101381E-2
3.574321E+2	2.111819E-2
3.575388E+2	2.052674E-2
3.576455E+2	2.150089E-2
3.577521E+2	2.143131E-2
3.578588E+2	2.146610E-2
3.579654E+2	2.160526E-2
3.580720E+2	2.233587E-2
3.581785E+2	2.083986E-2
3.582851E+2	2.181401E-2
3.583916E+2	2.177922E-2
3.584981E+2	2.104860E-2
3.586046E+2	2.132693E-2
3.587111E+2	2.198796E-2
3.588176E+2	2.108339E-2
3.589240E+2	2.097902E-2
3.590304E+2	2.094423E-2
3.591368E+2	2.146610E-2
3.592432E+2	2.129214E-2
3.593496E+2	2.111819E-2
3.594560E+2	2.209234E-2
3.595623E+2	2.111819E-2
3.596686E+2	2.139651E-2
3.597749E+2	2.181401E-2
3.598812E+2	2.191838E-2
3.599874E+2	2.132693E-2
3.600937E+2	2.209234E-2
3.601999E+2	2.122256E-2
3.603061E+2	2.129214E-2
3.604123E+2	2.191838E-2
3.605184E+2	2.073548E-2
3.606246E+2	2.146610E-2
3.607307E+2	2.077027E-2
3.608368E+2	2.104860E-2
3.609429E+2	2.139651E-2
3.610490E+2	2.083986E-2
3.611550E+2	2.139651E-2
3.612611E+2	2.150089E-2
3.613671E+2	2.160526E-2
3.614731E+2	2.115298E-2
3.615791E+2	2.129214E-2
3.616850E+2	2.101381E-2
3.617910E+2	2.164005E-2
3.618969E+2	2.170963E-2
3.620028E+2	2.157047E-2
3.621087E+2	2.097902E-2
3.622146E+2	2.250983E-2
3.623204E+2	2.108339E-2
3.624263E+2	2.122256E-2
3.625321E+2	2.094423E-2
3.626379E+2	2.219671E-2
3.627436E+2	2.125735E-2
3.628494E+2	2.129214E-2
3.629551E+2	2.104860E-2
3.630609E+2	2.202275E-2
3.631666E+2	2.129214E-2
3.632722E+2	2.097902E-2
3.633779E+2	2.191838E-2
3.634836E+2	2.101381E-2
3.635892E+2	2.087465E-2
3.636948E+2	2.125735E-2
3.638004E+2	2.143131E-2
3.639060E+2	2.118777E-2
3.640115E+2	2.136172E-2
3.641171E+2	2.160526E-2
3.642226E+2	2.111819E-2
3.643281E+2	2.115298E-2
3.644335E+2	2.101381E-2
3.645390E+2	2.122256E-2
3.646445E+2	2.164005E-2
3.647499E+2	2.132693E-2
3.648553E+2	2.070069E-2
3.649607E+2	2.049195E-2
3.650660E+2	2.101381E-2
3.651714E+2	2.170963E-2
3.652767E+2	2.122256E-2
3.653820E+2	2.153568E-2
3.654873E+2	2.122256E-2
3.655926E+2	2.146610E-2
3.656979E+2	2.143131E-2
3.658031E+2	2.167484E-2
3.659083E+2	2.177922E-2
3.660135E+2	2.164005E-2
3.661187E+2	2.188359E-2
3.662239E+2	2.097902E-2
3.663290E+2	2.097902E-2
3.664342E+2	2.129214E-2
3.665393E+2	2.111819E-2
3.666444E+2	2.170963E-2
3.667494E+2	2.139651E-2
3.668545E+2	2.153568E-2
3.669595E+2	2.150089E-2
3.670646E+2	2.094423E-2
3.671696E+2	2.198796E-2
3.672745E+2	2.150089E-2
3.673795E+2	2.101381E-2
3.674844E+2	2.177922E-2
3.675894E+2	2.077027E-2
3.676943E+2	2.150089E-2
3.677992E+2	2.132693E-2
3.679040E+2	2.157047E-2
3.680089E+2	2.094423E-2
3.681137E+2	2.195317E-2
3.682185E+2	2.177922E-2
3.683233E+2	2.136172E-2
3.684281E+2	2.160526E-2
3.685329E+2	2.153568E-2
3.686376E+2	2.101381E-2
3.687423E+2	2.174442E-2
3.688470E+2	2.115298E-2
3.689517E+2	2.240546E-2
3.690564E+2	2.212713E-2
3.691610E+2	2.177922E-2
3.692657E+2	2.157047E-2
3.693703E+2	2.264899E-2
3.694749E+2	2.150089E-2
3.695794E+2	2.170963E-2
3.696840E+2	2.181401E-2
3.697885E+2	2.181401E-2
3.698930E+2	2.181401E-2
3.699975E+2	2.160526E-2
3.701020E+2	2.202275E-2
3.702065E+2	2.219671E-2
3.703109E+2	2.205754E-2
3.704154E+2	2.174442E-2
3.705198E+2	2.209234E-2
3.706242E+2	2.174442E-2
3.707285E+2	2.101381E-2
3.708329E+2	2.146610E-2
3.709372E+2	2.191838E-2
3.710415E+2	2.195317E-2
3.711458E+2	2.195317E-2
3.712501E+2	2.111819E-2
3.713544E+2	2.150089E-2
3.714586E+2	2.177922E-2
3.715628E+2	2.146610E-2
3.716670E+2	2.035278E-2
3.717712E+2	2.143131E-2
3.718754E+2	2.219671E-2
3.719795E+2	2.160526E-2
3.720836E+2	2.195317E-2
3.721878E+2	2.212713E-2
3.722919E+2	2.136172E-2
3.723959E+2	2.264899E-2
3.725000E+2	2.271857E-2
3.726040E+2	2.188359E-2
3.727080E+2	2.198796E-2
3.728120E+2	2.264899E-2
3.729160E+2	2.223150E-2
3.730200E+2	2.195317E-2
3.731239E+2	2.223150E-2
3.732279E+2	2.170963E-2
3.733318E+2	2.160526E-2
3.734357E+2	2.285774E-2
3.735395E+2	2.237066E-2
3.736434E+2	2.195317E-2
3.737472E+2	2.139651E-2
3.738510E+2	2.188359E-2
3.739548E+2	2.205754E-2
3.740586E+2	2.202275E-2
3.741624E+2	2.254462E-2
3.742661E+2	2.157047E-2
3.743698E+2	2.230108E-2
3.744735E+2	2.139651E-2
3.745772E+2	2.237066E-2
3.746809E+2	2.292732E-2
3.747845E+2	2.167484E-2
3.748882E+2	2.198796E-2
3.749918E+2	2.188359E-2
3.750954E+2	2.250983E-2
3.751989E+2	2.282295E-2
3.753025E+2	2.240546E-2
3.754060E+2	2.150089E-2
3.755095E+2	2.268378E-2
3.756130E+2	2.195317E-2
3.757165E+2	2.247504E-2
3.758200E+2	2.230108E-2
3.759234E+2	2.285774E-2
3.760269E+2	2.257941E-2
3.761303E+2	2.191838E-2
3.762337E+2	2.257941E-2
3.763370E+2	2.212713E-2
3.764404E+2	2.306649E-2
3.765437E+2	2.264899E-2
3.766470E+2	2.257941E-2
3.767503E+2	2.285774E-2
3.768536E+2	2.264899E-2
3.769569E+2	2.264899E-2
3.770601E+2	2.337961E-2
3.771633E+2	2.331002E-2
3.772665E+2	2.334481E-2
3.773697E+2	2.216192E-2
3.774729E+2	2.324044E-2
3.775760E+2	2.282295E-2
3.776792E+2	2.337961E-2
3.777823E+2	2.285774E-2
3.778854E+2	2.372752E-2
3.779884E+2	2.386668E-2
3.780915E+2	2.299690E-2
3.781945E+2	2.379710E-2
3.782976E+2	2.348398E-2
3.784006E+2	2.379710E-2
3.785035E+2	2.459729E-2
3.786065E+2	2.376231E-2
3.787095E+2	2.365793E-2
3.788124E+2	2.484083E-2
3.789153E+2	2.511916E-2
3.790182E+2	2.571061E-2
3.791210E+2	2.863306E-2
3.792239E+2	3.141634E-2
3.793267E+2	3.541732E-2
3.794295E+2	4.046203E-2
3.795323E+2	4.477612E-2
3.796351E+2	4.902063E-2
3.797379E+2	5.239537E-2
3.798406E+2	5.757924E-2
3.799433E+2	5.730091E-2
3.800461E+2	5.410013E-2
3.801487E+2	5.291723E-2
3.802514E+2	5.062102E-2
3.803541E+2	4.975124E-2
3.804567E+2	4.815085E-2
3.805593E+2	4.627214E-2
3.806619E+2	4.293219E-2
3.807645E+2	4.140138E-2
3.808670E+2	4.331489E-2
3.809696E+2	5.211704E-2
3.810721E+2	6.909508E-2
3.811746E+2	9.407508E-2
3.812771E+2	1.201336E-1
3.813795E+2	1.328671E-1
3.814820E+2	1.308145E-1
3.815844E+2	1.166893E-1
3.816868E+2	9.504923E-2
3.817892E+2	7.706224E-2
3.818916E+2	6.871238E-2
3.819939E+2	7.935845E-2
3.820963E+2	1.011377E-1
3.821986E+2	1.380510E-1
3.823009E+2	1.685976E-1
3.824032E+2	1.930209E-1
3.825054E+2	1.994921E-1
3.826077E+2	1.874891E-1
3.827099E+2	1.647010E-1
3.828121E+2	1.315103E-1
3.829143E+2	1.048255E-1
3.830164E+2	9.122221E-2
3.831186E+2	9.525798E-2
3.832207E+2	1.239954E-1
3.833228E+2	1.727029E-1
3.834249E+2	2.243329E-1
3.835270E+2	2.690742E-1
3.836291E+2	2.999339E-1
3.837311E+2	2.926626E-1
3.838331E+2	2.583933E-1
3.839351E+2	2.111123E-1
3.840371E+2	1.610479E-1
3.841391E+2	1.371116E-1
3.842410E+2	1.517239E-1
3.843429E+2	2.099294E-1
3.844448E+2	3.069269E-1
3.845467E+2	4.339491E-1
3.846486E+2	5.242320E-1
3.847505E+2	5.561354E-1
3.848523E+2	5.240232E-1
3.849541E+2	4.378457E-1
3.850559E+2	3.228612E-1
3.851577E+2	2.526180E-1
3.852594E+2	2.416240E-1
3.853612E+2	3.119716E-1
3.854629E+2	4.324531E-1
3.855646E+2	5.553700E-1
3.856663E+2	6.241868E-1
3.857680E+2	6.284313E-1
3.858696E+2	5.522388E-1
3.859713E+2	4.271301E-1
3.860729E+2	3.204954E-1
3.861745E+2	2.839300E-1
3.862760E+2	3.409178E-1
3.863776E+2	4.903455E-1
3.864791E+2	6.895940E-1
3.865807E+2	8.412831E-1
3.866822E+2	9.097171E-1
3.867836E+2	8.487632E-1
3.868851E+2	7.020492E-1
3.869865E+2	5.228056E-1
3.870880E+2	4.022545E-1
3.871894E+2	3.746999E-1
3.872908E+2	4.394461E-1
3.873921E+2	5.715826E-1
3.874935E+2	6.865672E-1
3.875948E+2	7.389973E-1
3.876962E+2	7.245242E-1
3.877975E+2	6.196639E-1
3.878987E+2	4.746547E-1
3.880000E+2	3.616185E-1
3.881012E+2	3.334725E-1
3.882025E+2	4.128657E-1
3.883037E+2	5.956581E-1
3.884049E+2	8.073966E-1
3.885060E+2	9.406464E-1
3.886072E+2	1.000000E+0
3.887083E+2	9.639217E-1
3.888094E+2	8.519640E-1
3.889105E+2	6.581429E-1
3.890116E+2	4.554848E-1
3.891126E+2	3.566434E-1
3.892137E+2	3.628014E-1
3.893147E+2	4.715235E-1
3.894157E+2	6.193856E-1
3.895167E+2	7.465470E-1
3.896177E+2	8.201301E-1
3.897186E+2	7.992903E-1
3.898195E+2	7.020144E-1
3.899204E+2	5.412100E-1
3.900213E+2	4.021849E-1
3.901222E+2	3.608183E-1
3.902231E+2	4.163448E-1
3.903239E+2	5.517865E-1
3.904247E+2	7.144000E-1
3.905255E+2	8.394740E-1
3.906263E+2	8.666806E-1
3.907270E+2	7.808510E-1
3.908278E+2	6.246043E-1
3.909285E+2	4.511011E-1
3.910292E+2	3.430400E-1
3.911299E+2	3.502766E-1
3.912306E+2	4.575375E-1
3.913312E+2	6.348676E-1
3.914319E+2	8.169293E-1
3.915325E+2	9.018196E-1
3.916331E+2	9.110392E-1
3.917336E+2	8.097624E-1
3.918342E+2	6.326062E-1
3.919347E+2	4.519013E-1
3.920353E+2	3.537209E-1
3.921358E+2	3.391087E-1
3.922362E+2	4.375674E-1
3.923367E+2	5.755140E-1
3.924372E+2	7.115820E-1
3.925376E+2	7.755975E-1
3.926380E+2	7.606722E-1
3.927384E+2	6.841318E-1
3.928388E+2	5.465331E-1
3.929391E+2	4.137007E-1
3.930394E+2	3.354556E-1
3.931398E+2	3.526076E-1
3.932401E+2	4.363845E-1
3.933403E+2	5.917267E-1
3.934406E+2	7.140521E-1
3.935408E+2	7.972376E-1
3.936411E+2	7.706224E-1
3.937413E+2	6.766517E-1
3.938415E+2	5.497338E-1
3.939416E+2	4.182584E-1
3.940418E+2	3.167032E-1
3.941419E+2	2.939150E-1
3.942420E+2	3.117281E-1
3.943421E+2	3.667328E-1
3.944422E+2	4.315138E-1
3.945423E+2	4.875970E-1
3.946423E+2	5.035313E-1
3.947423E+2	4.816477E-1
3.948423E+2	4.147097E-1
3.949423E+2	3.389695E-1
3.950423E+2	2.710225E-1
3.951422E+2	2.299342E-1
3.952422E+2	2.234979E-1
3.953421E+2	2.511916E-1
3.954420E+2	2.935323E-1
3.955418E+2	3.437011E-1
3.956417E+2	3.669415E-1
3.957415E+2	3.521901E-1
3.958413E+2	3.146853E-1
3.959411E+2	2.650732E-1
3.960409E+2	2.119473E-1
3.961407E+2	1.639356E-1
3.962404E+2	1.441047E-1
3.963401E+2	1.401733E-1
3.964398E+2	1.512020E-1
3.965395E+2	1.703719E-1
3.966392E+2	1.858887E-1
3.967389E+2	1.936819E-1
3.968385E+2	1.870716E-1
3.969381E+2	1.709286E-1
3.970377E+2	1.496016E-1
3.971373E+2	1.278224E-1
3.972368E+2	1.099050E-1
3.973364E+2	1.007898E-1
3.974359E+2	1.000591E-1
3.975354E+2	1.070869E-1
3.976349E+2	1.112271E-1
3.977343E+2	1.161674E-1
3.978338E+2	1.155760E-1
3.979332E+2	1.063563E-1
3.980326E+2	9.473611E-2
3.981320E+2	7.709703E-2
3.982314E+2	6.286748E-2
3.983308E+2	5.566573E-2
3.984301E+2	5.138642E-2
3.985294E+2	5.434367E-2
3.986287E+2	5.803152E-2
3.987280E+2	6.192812E-2
3.988273E+2	6.318060E-2
3.989265E+2	6.119751E-2
3.990257E+2	5.657030E-2
3.991249E+2	5.128205E-2
3.992241E+2	4.627214E-2
3.993233E+2	4.484570E-2
3.994224E+2	4.272345E-2
3.995216E+2	4.595902E-2
3.996207E+2	5.361305E-2
3.997198E+2	5.740528E-2
3.998189E+2	6.304144E-2
3.999179E+2	6.516369E-2
4.000170E+2	6.151063E-2
4.001160E+2	5.716174E-2
4.002150E+2	5.100372E-2
4.003140E+2	4.512403E-2
4.004129E+2	4.133180E-2
4.005119E+2	4.091431E-2
4.006108E+2	4.063598E-2
4.007097E+2	4.077515E-2
4.008086E+2	4.390634E-2
4.009075E+2	4.279303E-2
4.010063E+2	4.279303E-2
4.011052E+2	4.063598E-2
4.012040E+2	3.746999E-2
4.013028E+2	3.409526E-2
4.014016E+2	3.329506E-2
4.015003E+2	3.413005E-2
4.015991E+2	3.475629E-2
4.016978E+2	3.774832E-2
4.017965E+2	3.896601E-2
4.018952E+2	3.879205E-2
4.019939E+2	3.861810E-2
4.020925E+2	3.694813E-2
4.021912E+2	3.444317E-2
4.022898E+2	3.169467E-2
4.023884E+2	3.085969E-2
4.024869E+2	2.814598E-2
4.025855E+2	2.838952E-2
4.026840E+2	2.710225E-2
4.027826E+2	2.741537E-2
4.028811E+2	2.720662E-2
4.029796E+2	2.800682E-2
4.030780E+2	2.748495E-2
4.031765E+2	2.800682E-2
4.032749E+2	2.706746E-2
4.033733E+2	2.633685E-2
4.034717E+2	2.515395E-2
4.035701E+2	2.470167E-2
4.036684E+2	2.494520E-2
4.037668E+2	2.553665E-2
4.038651E+2	2.581498E-2
4.039634E+2	2.511916E-2
4.040617E+2	2.522353E-2
4.041599E+2	2.480604E-2
4.042582E+2	2.449292E-2
4.043564E+2	2.445813E-2
4.044546E+2	2.285774E-2
4.045528E+2	2.282295E-2
4.046510E+2	2.303169E-2
4.047491E+2	2.275337E-2
4.048473E+2	2.341440E-2
4.049454E+2	2.271857E-2
4.050435E+2	2.202275E-2
4.051415E+2	2.261420E-2
4.052396E+2	2.296211E-2
4.053376E+2	2.250983E-2
4.054357E+2	2.125735E-2
4.055337E+2	2.254462E-2
4.056317E+2	2.157047E-2
4.057296E+2	2.205754E-2
4.058276E+2	2.191838E-2
4.059255E+2	2.212713E-2
4.060234E+2	2.230108E-2
4.061213E+2	2.275337E-2
4.062192E+2	2.271857E-2
4.063170E+2	2.237066E-2
4.064149E+2	2.132693E-2
4.065127E+2	2.202275E-2
4.066105E+2	2.160526E-2
4.067083E+2	2.188359E-2
4.068060E+2	2.157047E-2
4.069038E+2	2.261420E-2
4.070015E+2	2.177922E-2
4.070992E+2	2.212713E-2
4.071969E+2	2.240546E-2
4.072946E+2	2.275337E-2
4.073922E+2	2.177922E-2
4.074899E+2	2.125735E-2
4.075875E+2	2.184880E-2
4.076851E+2	2.122256E-2
4.077826E+2	2.157047E-2
4.078802E+2	2.181401E-2
4.079777E+2	2.177922E-2
4.080753E+2	2.132693E-2
4.081728E+2	2.118777E-2
4.082703E+2	2.209234E-2
4.083677E+2	2.160526E-2
4.084652E+2	2.139651E-2
4.085626E+2	2.188359E-2
4.086600E+2	2.115298E-2
4.087574E+2	2.077027E-2
4.088548E+2	2.219671E-2
4.089521E+2	2.129214E-2
4.090495E+2	2.209234E-2
4.091468E+2	2.153568E-2
4.092441E+2	2.094423E-2
4.093414E+2	2.202275E-2
4.094386E+2	2.170963E-2
4.095359E+2	2.240546E-2
4.096331E+2	2.125735E-2
4.097303E+2	2.111819E-2
4.098275E+2	2.164005E-2
4.099247E+2	2.139651E-2
4.100218E+2	2.115298E-2
4.101190E+2	2.181401E-2
4.102161E+2	2.132693E-2
4.103132E+2	2.240546E-2
4.104103E+2	2.143131E-2
4.105073E+2	2.122256E-2
4.106044E+2	2.198796E-2
4.107014E+2	2.170963E-2
4.107984E+2	2.101381E-2
4.108954E+2	2.212713E-2
4.109923E+2	2.115298E-2
4.110893E+2	2.077027E-2
4.111862E+2	2.181401E-2
4.112831E+2	2.191838E-2
4.113800E+2	2.170963E-2
4.114769E+2	2.111819E-2
4.115738E+2	2.049195E-2
4.116706E+2	2.104860E-2
4.117674E+2	2.132693E-2
4.118642E+2	2.115298E-2
4.119610E+2	2.118777E-2
4.120578E+2	2.170963E-2
4.121545E+2	2.202275E-2
4.122512E+2	2.188359E-2
4.123479E+2	2.049195E-2
4.124446E+2	2.097902E-2
4.125413E+2	2.188359E-2
4.126380E+2	2.174442E-2
4.127346E+2	2.115298E-2
4.128312E+2	2.115298E-2
4.129278E+2	2.174442E-2
4.130244E+2	2.164005E-2
4.131209E+2	2.129214E-2
4.132175E+2	2.202275E-2
4.133140E+2	2.160526E-2
4.134105E+2	2.118777E-2
4.135070E+2	2.184880E-2
4.136035E+2	2.129214E-2
4.136999E+2	2.132693E-2
4.137963E+2	2.122256E-2
4.138928E+2	2.164005E-2
4.139892E+2	2.160526E-2
4.140855E+2	2.191838E-2
4.141819E+2	2.125735E-2
4.142782E+2	2.111819E-2
4.143745E+2	2.118777E-2
4.144708E+2	2.177922E-2
4.145671E+2	2.195317E-2
4.146634E+2	2.170963E-2
4.147596E+2	2.122256E-2
4.148559E+2	2.031799E-2
4.149521E+2	2.181401E-2
4.150483E+2	2.143131E-2
4.151444E+2	2.080507E-2
4.152406E+2	2.108339E-2
4.153367E+2	2.049195E-2
4.154328E+2	2.139651E-2
4.155289E+2	2.129214E-2
4.156250E+2	2.122256E-2
4.157211E+2	2.143131E-2
4.158171E+2	2.111819E-2
4.159131E+2	2.108339E-2
4.160091E+2	2.090944E-2
4.161051E+2	2.115298E-2
4.162011E+2	2.052674E-2
4.162971E+2	2.077027E-2
4.163930E+2	2.174442E-2
4.164889E+2	2.198796E-2
4.165848E+2	2.170963E-2
4.166807E+2	2.143131E-2
4.167765E+2	2.087465E-2
4.168724E+2	2.129214E-2
4.169682E+2	2.233587E-2
4.170640E+2	2.160526E-2
4.171598E+2	2.104860E-2
4.172555E+2	2.150089E-2
4.173513E+2	2.160526E-2
4.174470E+2	2.146610E-2
4.175427E+2	2.111819E-2
4.176384E+2	2.056153E-2
4.177341E+2	2.059632E-2
4.178297E+2	2.094423E-2
4.179254E+2	2.090944E-2
4.180210E+2	2.052674E-2
4.181166E+2	2.177922E-2
4.182122E+2	2.090944E-2
4.183077E+2	2.125735E-2
4.184033E+2	2.077027E-2
4.184988E+2	2.195317E-2
4.185943E+2	2.143131E-2
4.186898E+2	2.167484E-2
4.187852E+2	2.059632E-2
4.188807E+2	2.115298E-2
4.189761E+2	2.184880E-2
4.190715E+2	2.157047E-2
4.191669E+2	2.205754E-2
4.192623E+2	2.122256E-2
4.193577E+2	2.146610E-2
4.194530E+2	2.160526E-2
4.195483E+2	2.038757E-2
4.196436E+2	2.070069E-2
4.197389E+2	2.177922E-2
4.198342E+2	2.104860E-2
4.199294E+2	2.087465E-2
4.200246E+2	2.080507E-2
4.201199E+2	2.045715E-2
4.202150E+2	2.066590E-2
4.203102E+2	2.118777E-2
4.204054E+2	2.150089E-2
4.205005E+2	2.160526E-2
4.205956E+2	2.136172E-2
4.206907E+2	2.122256E-2
4.207858E+2	2.184880E-2
4.208809E+2	2.115298E-2
4.209759E+2	2.170963E-2
4.210709E+2	2.136172E-2
4.211659E+2	2.122256E-2
4.212609E+2	2.118777E-2
4.213559E+2	2.094423E-2
4.214508E+2	2.195317E-2
4.215458E+2	2.209234E-2
4.216407E+2	2.104860E-2
4.217356E+2	2.136172E-2
4.218305E+2	2.129214E-2
4.219253E+2	2.021362E-2
4.220202E+2	2.143131E-2
4.221150E+2	2.063111E-2
4.222098E+2	2.139651E-2
4.223046E+2	2.157047E-2
4.223993E+2	2.115298E-2
4.224941E+2	2.118777E-2
4.225888E+2	2.139651E-2
4.226835E+2	2.104860E-2
4.227782E+2	2.139651E-2
4.228729E+2	2.115298E-2
4.229675E+2	2.073548E-2
4.230622E+2	2.111819E-2
4.231568E+2	2.094423E-2
4.232514E+2	2.073548E-2
4.233460E+2	2.191838E-2
4.234405E+2	2.115298E-2
4.235351E+2	2.097902E-2
4.236296E+2	2.118777E-2
4.237241E+2	2.132693E-2
4.238186E+2	2.101381E-2
4.239130E+2	2.115298E-2
4.240075E+2	2.059632E-2
4.241019E+2	2.083986E-2
4.241963E+2	2.028320E-2
4.242907E+2	2.150089E-2
4.243851E+2	2.066590E-2
4.244795E+2	2.160526E-2
4.245738E+2	2.104860E-2
4.246681E+2	2.028320E-2
4.247624E+2	2.031799E-2
4.248567E+2	2.104860E-2
4.249510E+2	2.090944E-2
4.250452E+2	2.108339E-2
4.251395E+2	2.104860E-2
4.252337E+2	2.097902E-2
4.253279E+2	2.132693E-2
4.254220E+2	2.146610E-2
4.255162E+2	2.136172E-2
4.256103E+2	2.139651E-2
4.257044E+2	2.073548E-2
4.257985E+2	2.070069E-2
4.258926E+2	2.070069E-2
4.259867E+2	2.136172E-2
4.260807E+2	2.188359E-2
4.261748E+2	2.097902E-2
4.262688E+2	2.157047E-2
4.263627E+2	2.077027E-2
4.264567E+2	2.087465E-2
4.265507E+2	2.150089E-2
4.266446E+2	2.066590E-2
4.267385E+2	2.090944E-2
4.268324E+2	2.174442E-2
4.269263E+2	2.143131E-2
4.270201E+2	2.157047E-2
4.271140E+2	2.101381E-2
4.272078E+2	2.129214E-2
4.273016E+2	2.070069E-2
4.273954E+2	2.153568E-2
4.274892E+2	2.094423E-2
4.275829E+2	2.083986E-2
4.276766E+2	2.031799E-2
4.277703E+2	2.045715E-2
4.278640E+2	2.049195E-2
4.279577E+2	2.087465E-2
4.280514E+2	2.035278E-2
4.281450E+2	2.122256E-2
4.282386E+2	2.017883E-2
4.283322E+2	2.122256E-2
4.284258E+2	2.073548E-2
4.285194E+2	2.063111E-2
4.286129E+2	2.083986E-2
4.287064E+2	2.097902E-2
4.287999E+2	2.104860E-2
4.288934E+2	2.094423E-2
4.289869E+2	2.108339E-2
4.290803E+2	2.073548E-2
4.291738E+2	2.115298E-2
4.292672E+2	2.059632E-2
4.293606E+2	2.129214E-2
4.294540E+2	2.083986E-2
4.295473E+2	2.073548E-2
4.296407E+2	2.118777E-2
4.297340E+2	2.052674E-2
4.298273E+2	2.108339E-2
4.299206E+2	2.122256E-2
4.300138E+2	2.003966E-2
4.301071E+2	2.063111E-2
4.302003E+2	2.077027E-2
4.302935E+2	2.132693E-2
4.303867E+2	1.997008E-2
4.304799E+2	2.059632E-2
4.305730E+2	2.077027E-2
4.306662E+2	2.077027E-2
4.307593E+2	2.115298E-2
4.308524E+2	2.070069E-2
4.309455E+2	2.111819E-2
4.310385E+2	2.167484E-2
4.311316E+2	2.111819E-2
4.312246E+2	2.167484E-2
4.313176E+2	2.111819E-2
4.314106E+2	2.059632E-2
4.315036E+2	2.045715E-2
4.315965E+2	2.136172E-2
4.316895E+2	2.160526E-2
4.317824E+2	2.170963E-2
4.318753E+2	2.021362E-2
4.319681E+2	2.052674E-2
4.320610E+2	2.118777E-2
4.321538E+2	2.122256E-2
4.322467E+2	2.097902E-2
4.323395E+2	2.052674E-2
4.324323E+2	2.101381E-2
4.325250E+2	1.997008E-2
4.326178E+2	2.132693E-2
4.327105E+2	2.094423E-2
4.328032E+2	2.035278E-2
4.328959E+2	2.094423E-2
4.329886E+2	2.083986E-2
4.330812E+2	2.070069E-2
4.331739E+2	1.969175E-2
4.332665E+2	2.129214E-2
4.333591E+2	2.101381E-2
4.334517E+2	2.017883E-2
4.335442E+2	2.143131E-2
4.336368E+2	2.129214E-2
4.337293E+2	2.087465E-2
4.338218E+2	2.063111E-2
4.339143E+2	2.111819E-2
4.340068E+2	2.021362E-2
4.340992E+2	2.104860E-2
4.341916E+2	2.042236E-2
4.342841E+2	2.000487E-2
4.343765E+2	2.087465E-2
4.344688E+2	2.087465E-2
4.345612E+2	2.115298E-2
4.346535E+2	2.094423E-2
4.347459E+2	2.132693E-2
4.348382E+2	2.042236E-2
4.349304E+2	2.101381E-2
4.350227E+2	2.104860E-2
4.351150E+2	2.056153E-2
4.352072E+2	2.021362E-2
4.352994E+2	2.129214E-2
4.353916E+2	2.136172E-2
4.354838E+2	2.073548E-2
4.355759E+2	2.101381E-2
4.356681E+2	2.122256E-2
4.357602E+2	2.184880E-2
4.358523E+2	2.094423E-2
4.359444E+2	2.143131E-2
4.360364E+2	2.087465E-2
4.361285E+2	2.066590E-2
4.362205E+2	2.083986E-2
4.363125E+2	2.104860E-2
4.364045E+2	2.028320E-2
4.364965E+2	2.059632E-2
4.365884E+2	2.077027E-2
4.366803E+2	2.108339E-2
4.367723E+2	2.118777E-2
4.368642E+2	2.108339E-2
4.369560E+2	2.108339E-2
4.370479E+2	2.049195E-2
4.371397E+2	2.038757E-2
4.372316E+2	2.059632E-2
4.373234E+2	2.118777E-2
4.374151E+2	2.111819E-2
4.375069E+2	2.104860E-2
4.375987E+2	2.136172E-2
4.376904E+2	2.083986E-2
4.377821E+2	2.136172E-2
4.378738E+2	2.136172E-2
4.379655E+2	2.077027E-2
4.380571E+2	2.136172E-2
4.381488E+2	2.115298E-2
4.382404E+2	2.059632E-2
4.383320E+2	2.122256E-2
4.384236E+2	2.073548E-2
4.385151E+2	2.083986E-2
4.386067E+2	2.049195E-2
4.386982E+2	2.066590E-2
4.387897E+2	2.038757E-2
4.388812E+2	2.118777E-2
4.389727E+2	2.104860E-2
4.390641E+2	2.090944E-2
4.391556E+2	2.066590E-2
4.392470E+2	2.104860E-2
4.393384E+2	2.035278E-2
4.394297E+2	2.177922E-2
4.395211E+2	2.087465E-2
4.396124E+2	2.056153E-2
4.397038E+2	2.143131E-2
4.397951E+2	2.111819E-2
4.398864E+2	2.094423E-2
4.399776E+2	2.132693E-2
4.400689E+2	2.080507E-2
4.401601E+2	2.038757E-2
4.402513E+2	2.108339E-2
4.403425E+2	1.941342E-2
4.404337E+2	2.063111E-2
4.405248E+2	2.049195E-2
4.406160E+2	2.094423E-2
4.407071E+2	2.087465E-2
4.407982E+2	2.146610E-2
4.408893E+2	2.097902E-2
4.409803E+2	2.024841E-2
4.410714E+2	2.049195E-2
4.411624E+2	2.024841E-2
4.412534E+2	2.143131E-2
4.413444E+2	2.070069E-2
4.414354E+2	2.087465E-2
4.415263E+2	2.080507E-2
4.416173E+2	2.087465E-2
4.417082E+2	2.073548E-2
4.417991E+2	2.083986E-2
4.418900E+2	2.129214E-2
4.419808E+2	2.087465E-2
4.420717E+2	2.122256E-2
4.421625E+2	2.122256E-2
4.422533E+2	2.167484E-2
4.423441E+2	2.070069E-2
4.424348E+2	2.049195E-2
4.425256E+2	2.070069E-2
4.426163E+2	2.017883E-2
4.427070E+2	2.111819E-2
4.427977E+2	2.129214E-2
4.428884E+2	2.097902E-2
4.429791E+2	2.056153E-2
4.430697E+2	2.021362E-2
4.431603E+2	2.129214E-2
4.432509E+2	2.143131E-2
4.433415E+2	2.031799E-2
4.434321E+2	2.049195E-2
4.435226E+2	2.024841E-2
4.436131E+2	2.017883E-2
4.437036E+2	1.979612E-2
4.437941E+2	2.028320E-2
4.438846E+2	2.118777E-2
4.439751E+2	2.035278E-2
4.440655E+2	2.038757E-2
4.441559E+2	2.080507E-2
4.442463E+2	2.070069E-2
4.443367E+2	2.101381E-2
4.444270E+2	2.136172E-2
4.445174E+2	2.181401E-2
4.446077E+2	2.028320E-2
4.446980E+2	2.118777E-2
4.447883E+2	2.108339E-2
4.448786E+2	2.136172E-2
4.449688E+2	2.090944E-2
4.450591E+2	2.083986E-2
4.451493E+2	2.094423E-2
4.452395E+2	2.070069E-2
4.453296E+2	2.115298E-2
4.454198E+2	2.056153E-2
4.455099E+2	2.157047E-2
4.456000E+2	2.056153E-2
4.456902E+2	2.045715E-2
4.457802E+2	2.139651E-2
4.458703E+2	2.077027E-2
4.459603E+2	2.139651E-2
4.460504E+2	2.077027E-2
4.461404E+2	2.052674E-2
4.462304E+2	2.129214E-2
4.463203E+2	2.052674E-2
4.464103E+2	2.080507E-2
4.465002E+2	2.028320E-2
4.465901E+2	2.097902E-2
4.466800E+2	2.045715E-2
4.467699E+2	2.031799E-2
4.468598E+2	2.087465E-2
4.469496E+2	2.108339E-2
4.470394E+2	2.070069E-2
4.471293E+2	2.101381E-2
4.472190E+2	2.132693E-2
4.473088E+2	2.136172E-2
4.473986E+2	2.129214E-2
4.474883E+2	2.049195E-2
4.475780E+2	2.066590E-2
4.476677E+2	2.066590E-2
4.477574E+2	1.986571E-2
4.478470E+2	2.170963E-2
4.479367E+2	2.038757E-2
4.480263E+2	2.146610E-2
4.481159E+2	2.070069E-2
4.482055E+2	2.111819E-2
4.482950E+2	2.143131E-2
4.483846E+2	2.080507E-2
4.484741E+2	2.097902E-2
4.485636E+2	2.139651E-2
4.486531E+2	2.087465E-2
4.487426E+2	2.045715E-2
4.488320E+2	2.049195E-2
4.489215E+2	2.073548E-2
4.490109E+2	2.066590E-2
4.491003E+2	2.059632E-2
4.491897E+2	2.007445E-2
4.492790E+2	2.042236E-2
4.493684E+2	2.122256E-2
4.494577E+2	2.052674E-2
4.495470E+2	2.066590E-2
4.496363E+2	2.066590E-2
4.497256E+2	2.003966E-2
4.498148E+2	2.115298E-2
4.499040E+2	2.108339E-2
4.499932E+2	2.101381E-2
4.500824E+2	2.063111E-2
4.501716E+2	2.083986E-2
4.502608E+2	2.073548E-2
4.503499E+2	2.122256E-2
4.504390E+2	2.073548E-2
4.505281E+2	1.990050E-2
4.506172E+2	2.097902E-2
4.507063E+2	2.118777E-2
4.507953E+2	2.024841E-2
4.508844E+2	2.122256E-2
4.509734E+2	2.010924E-2
4.510624E+2	2.094423E-2
4.511513E+2	2.045715E-2
4.512403E+2	2.049195E-2
4.513292E+2	2.014404E-2
4.514181E+2	2.066590E-2
4.515070E+2	2.042236E-2
4.515959E+2	2.063111E-2
4.516848E+2	2.042236E-2
4.517736E+2	2.090944E-2
4.518624E+2	2.080507E-2
4.519513E+2	2.038757E-2
4.520400E+2	2.136172E-2
4.521288E+2	2.073548E-2
4.522176E+2	2.038757E-2
4.523063E+2	2.035278E-2
4.523950E+2	2.108339E-2
4.524837E+2	2.132693E-2
4.525724E+2	2.077027E-2
4.526610E+2	2.080507E-2
4.527497E+2	2.073548E-2
4.528383E+2	1.986571E-2
4.529269E+2	2.059632E-2
4.530155E+2	2.118777E-2
4.531040E+2	2.077027E-2
4.531926E+2	1.993529E-2
4.532811E+2	2.073548E-2
4.533696E+2	2.059632E-2
4.534581E+2	2.087465E-2
4.535466E+2	2.083986E-2
4.536350E+2	2.031799E-2
4.537235E+2	2.129214E-2
4.538119E+2	2.080507E-2
4.539003E+2	2.028320E-2
4.539887E+2	2.045715E-2
4.540770E+2	2.049195E-2
4.541654E+2	2.097902E-2
4.542537E+2	2.045715E-2
4.543420E+2	2.083986E-2
4.544303E+2	2.073548E-2
4.545186E+2	2.104860E-2
4.546068E+2	2.104860E-2
4.546951E+2	2.111819E-2
4.547833E+2	2.073548E-2
4.548715E+2	2.090944E-2
4.549596E+2	2.059632E-2
4.550478E+2	2.056153E-2
4.551359E+2	2.104860E-2
4.552241E+2	2.143131E-2
4.553122E+2	2.024841E-2
4.554002E+2	2.059632E-2
4.554883E+2	2.059632E-2
4.555764E+2	2.077027E-2
4.556644E+2	2.049195E-2
4.557524E+2	2.115298E-2
4.558404E+2	2.087465E-2
4.559284E+2	2.080507E-2
4.560163E+2	2.063111E-2
4.561042E+2	2.094423E-2
4.561922E+2	2.038757E-2
4.562801E+2	2.042236E-2
4.563679E+2	2.083986E-2
4.564558E+2	2.090944E-2
4.565436E+2	2.104860E-2
4.566315E+2	2.063111E-2
4.567193E+2	2.094423E-2
4.568071E+2	2.090944E-2
4.568948E+2	2.184880E-2
4.569826E+2	2.108339E-2
4.570703E+2	2.118777E-2
4.571580E+2	2.083986E-2
4.572457E+2	2.059632E-2
4.573334E+2	2.066590E-2
4.574211E+2	2.122256E-2
4.575087E+2	2.066590E-2
4.575963E+2	2.115298E-2
4.576839E+2	2.139651E-2
4.577715E+2	2.014404E-2
4.578591E+2	2.101381E-2
4.579466E+2	2.042236E-2
4.580342E+2	2.111819E-2
4.581217E+2	2.059632E-2
4.582092E+2	2.059632E-2
4.582966E+2	2.066590E-2
4.583841E+2	2.070069E-2
4.584715E+2	2.049195E-2
4.585589E+2	2.153568E-2
4.586463E+2	2.070069E-2
4.587337E+2	2.000487E-2
4.588211E+2	2.129214E-2
4.589084E+2	2.125735E-2
4.589958E+2	2.066590E-2
4.590831E+2	2.094423E-2
4.591703E+2	2.031799E-2
4.592576E+2	2.087465E-2
4.593449E+2	2.129214E-2
4.594321E+2	2.031799E-2
4.595193E+2	2.056153E-2
4.596065E+2	2.104860E-2
4.596937E+2	2.028320E-2
4.597808E+2	2.083986E-2
4.598680E+2	2.167484E-2
4.599551E+2	2.118777E-2
4.600422E+2	2.024841E-2
4.601293E+2	2.118777E-2
4.602164E+2	2.097902E-2
4.603034E+2	2.077027E-2
4.603904E+2	1.993529E-2
4.604774E+2	2.146610E-2
4.605644E+2	2.010924E-2
4.606514E+2	2.014404E-2
4.607384E+2	2.083986E-2
4.608253E+2	2.101381E-2
4.609122E+2	2.021362E-2
4.609991E+2	2.122256E-2
4.610860E+2	2.042236E-2
4.611729E+2	2.094423E-2
4.612597E+2	2.017883E-2
4.613465E+2	2.056153E-2
4.614333E+2	2.122256E-2
4.615201E+2	2.132693E-2
4.616069E+2	2.038757E-2
4.616937E+2	2.104860E-2
4.617804E+2	2.090944E-2
4.618671E+2	1.986571E-2
4.619538E+2	1.993529E-2
4.620405E+2	2.066590E-2
4.621271E+2	2.097902E-2
4.622138E+2	2.083986E-2
4.623004E+2	2.028320E-2
4.623870E+2	2.070069E-2
4.624736E+2	2.083986E-2
4.625602E+2	2.063111E-2
4.626467E+2	2.073548E-2
4.627332E+2	2.042236E-2
4.628197E+2	2.017883E-2
4.629062E+2	2.042236E-2
4.629927E+2	2.052674E-2
4.630792E+2	2.125735E-2
4.631656E+2	2.184880E-2
4.632520E+2	2.038757E-2
4.633384E+2	2.049195E-2
4.634248E+2	2.143131E-2
4.635112E+2	2.021362E-2
4.635975E+2	2.073548E-2
4.636838E+2	2.017883E-2
4.637701E+2	2.031799E-2
4.638564E+2	2.073548E-2
4.639427E+2	2.007445E-2
4.640289E+2	2.073548E-2
4.641152E+2	1.990050E-2
4.642014E+2	2.066590E-2
4.642876E+2	2.063111E-2
4.643738E+2	2.090944E-2
4.644599E+2	2.049195E-2
4.645461E+2	2.021362E-2
4.646322E+2	2.007445E-2
4.647183E+2	2.108339E-2
4.648044E+2	2.160526E-2
4.648904E+2	2.045715E-2
4.649765E+2	1.990050E-2
4.650625E+2	2.087465E-2
4.651485E+2	2.118777E-2
4.652345E+2	2.052674E-2
4.653205E+2	2.049195E-2
4.654065E+2	2.080507E-2
4.654924E+2	2.101381E-2
4.655783E+2	2.111819E-2
4.656642E+2	2.080507E-2
4.657501E+2	2.031799E-2
4.658360E+2	2.017883E-2
4.659218E+2	2.080507E-2
4.660076E+2	2.038757E-2
4.660934E+2	2.129214E-2
4.661792E+2	1.983092E-2
4.662650E+2	2.167484E-2
4.663508E+2	2.045715E-2
4.664365E+2	2.045715E-2
4.665222E+2	2.031799E-2
4.666079E+2	2.049195E-2
4.666936E+2	2.017883E-2
4.667792E+2	2.063111E-2
4.668649E+2	2.038757E-2
4.669505E+2	2.000487E-2
4.670361E+2	2.083986E-2
4.671217E+2	2.024841E-2
4.672073E+2	2.066590E-2
4.672928E+2	2.031799E-2
4.673783E+2	2.056153E-2
4.674638E+2	2.059632E-2
4.675493E+2	1.993529E-2
4.676348E+2	2.083986E-2
4.677203E+2	2.111819E-2
4.678057E+2	2.010924E-2
4.678911E+2	2.101381E-2
4.679765E+2	2.080507E-2
4.680619E+2	2.038757E-2
4.681473E+2	2.077027E-2
4.682326E+2	2.049195E-2
4.683179E+2	2.038757E-2
4.684032E+2	2.017883E-2
4.684885E+2	1.990050E-2
4.685738E+2	2.038757E-2
4.686591E+2	2.017883E-2
4.687443E+2	1.990050E-2
4.688295E+2	2.111819E-2
4.689147E+2	2.056153E-2
4.689999E+2	2.080507E-2
4.690850E+2	2.083986E-2
4.691702E+2	2.056153E-2
4.692553E+2	1.990050E-2
4.693404E+2	2.063111E-2
4.694255E+2	1.990050E-2
4.695106E+2	2.063111E-2
4.695956E+2	2.164005E-2
4.696806E+2	2.042236E-2
4.697657E+2	2.080507E-2
4.698507E+2	2.049195E-2
4.699356E+2	2.063111E-2
4.700206E+2	2.014404E-2
4.701055E+2	2.059632E-2
4.701904E+2	2.021362E-2
4.702753E+2	1.990050E-2
4.703602E+2	2.045715E-2
4.704451E+2	2.090944E-2
4.705299E+2	2.066590E-2
4.706148E+2	2.066590E-2
4.706996E+2	2.021362E-2
4.707844E+2	2.101381E-2
4.708691E+2	2.045715E-2
4.709539E+2	1.986571E-2
4.710386E+2	2.132693E-2
4.711233E+2	2.063111E-2
4.712080E+2	2.049195E-2
4.712927E+2	1.979612E-2
4.713774E+2	2.122256E-2
4.714620E+2	2.038757E-2
4.715466E+2	2.045715E-2
4.716312E+2	2.059632E-2
4.717158E+2	1.997008E-2
4.718004E+2	2.007445E-2
4.718849E+2	1.990050E-2
4.719695E+2	1.990050E-2
4.720540E+2	2.063111E-2
4.721385E+2	2.059632E-2
4.722230E+2	2.038757E-2
4.723074E+2	2.080507E-2
4.723918E+2	2.042236E-2
4.724763E+2	2.024841E-2
4.725607E+2	2.066590E-2
4.726451E+2	2.108339E-2
4.727294E+2	2.059632E-2
4.728138E+2	2.104860E-2
4.728981E+2	2.059632E-2
4.729824E+2	1.997008E-2
4.730667E+2	2.007445E-2
4.731510E+2	2.010924E-2
4.732352E+2	2.010924E-2
4.733194E+2	2.031799E-2
4.734037E+2	2.083986E-2
4.734879E+2	2.059632E-2
4.735720E+2	2.014404E-2
4.736562E+2	2.021362E-2
4.737403E+2	2.097902E-2
4.738245E+2	2.077027E-2
4.739086E+2	2.056153E-2
4.739927E+2	2.052674E-2
4.740767E+2	2.097902E-2
4.741608E+2	2.024841E-2
4.742448E+2	2.028320E-2
4.743288E+2	2.010924E-2
4.744128E+2	2.024841E-2
4.744968E+2	2.028320E-2
4.745807E+2	2.031799E-2
4.746647E+2	2.038757E-2
4.747486E+2	2.052674E-2
4.748325E+2	2.052674E-2
4.749164E+2	2.080507E-2
4.750002E+2	2.083986E-2
4.750841E+2	2.115298E-2
4.751679E+2	2.090944E-2
4.752517E+2	1.986571E-2
4.753355E+2	2.010924E-2
4.754193E+2	2.042236E-2
4.755030E+2	2.094423E-2
4.755868E+2	2.035278E-2
4.756705E+2	1.955259E-2
4.757542E+2	1.986571E-2
4.758379E+2	1.993529E-2
4.759215E+2	2.059632E-2
4.760052E+2	2.010924E-2
4.760888E+2	2.059632E-2
4.761724E+2	2.052674E-2
4.762560E+2	2.049195E-2
4.763396E+2	2.017883E-2
4.764231E+2	2.070069E-2
4.765066E+2	2.049195E-2
4.765902E+2	2.000487E-2
4.766737E+2	2.136172E-2
4.767571E+2	2.087465E-2
4.768406E+2	2.101381E-2
4.769240E+2	2.083986E-2
4.770074E+2	2.090944E-2
4.770908E+2	2.017883E-2
4.771742E+2	1.969175E-2
4.772576E+2	2.087465E-2
4.773409E+2	2.118777E-2
4.774243E+2	2.031799E-2
4.775076E+2	2.024841E-2
4.775909E+2	2.045715E-2
4.776741E+2	2.028320E-2
4.777574E+2	2.021362E-2
4.778406E+2	1.990050E-2
4.779238E+2	2.097902E-2
4.780070E+2	2.024841E-2
4.780902E+2	2.077027E-2
4.781734E+2	2.031799E-2
4.782565E+2	2.063111E-2
4.783397E+2	2.066590E-2
4.784228E+2	2.042236E-2
4.785058E+2	2.021362E-2
4.785889E+2	1.955259E-2
4.786720E+2	2.153568E-2
4.787550E+2	2.080507E-2
4.788380E+2	2.101381E-2
4.789210E+2	2.035278E-2
4.790040E+2	2.021362E-2
4.790869E+2	2.017883E-2
4.791699E+2	2.070069E-2
4.792528E+2	2.056153E-2
4.793357E+2	2.003966E-2
4.794186E+2	1.990050E-2
4.795014E+2	2.021362E-2
4.795843E+2	2.059632E-2
4.796671E+2	2.038757E-2
4.797499E+2	1.986571E-2
