600.0244	0
600.3911	0
600.7583	0
601.1259	0
601.494	0
601.8625	0
602.2314	0
602.6009	0
602.9707	0
603.3411	0
603.7119	0
604.0831	0
604.4548	0
604.8269	0
605.1996	0
605.5726	0
605.9462	0
606.3202	0
606.6946	0
607.0695	0
607.4449	0
607.8208	0
608.1971	0
608.5739	0
608.9511	0
609.3288	0
609.707	0
610.0857	0
610.4648	0
610.8444	0
611.2244	0
611.605	0
611.986	0
612.3675	0
612.7495	0
613.1319	0
613.5148	0
613.8982	0
614.2821	0
614.6665	0
615.0513	0
615.4366	0
615.8224	0
616.2087	0
616.5955	0
616.9827	0
617.3705	0
617.7587	0
618.1474	0
618.5367	0
618.9264	0
619.3166	0
619.7072	0
620.0984	0
620.4901	0
620.8823	0
621.2749	0
621.6681	0
622.0618	0
622.4559	0
622.8506	0
623.2457	0
623.6414	0
624.0376	0
624.4342	0
624.8314	0
625.2291	0
625.6273	0
626.026	0
626.4252	0
626.8249	0
627.2251	0
627.6258	0
628.0271	0
628.4288	0
628.8311	0
629.2339	0
629.6372	0
630.041	0
630.4453	0
630.8502	0
631.2556	0
631.6615	0
632.0679	0
632.4748	0
632.8823	0
633.2903	0
633.6988	0
634.1079	0
634.5175	0
634.9276	0
635.3382	0
635.7494	0
636.1611	0
636.5733	0
636.9861	0
637.3994	0
637.8132	0
638.2276	0
638.6425	0
639.058	0
639.474	0
639.8905	0
640.3076	0
640.7252	0
641.1434	0
641.5621	0
641.9814	0
642.4012	0
642.8216	0
643.2425	0
643.664	0
644.086	0
644.5085	0
644.9317	0
645.3554	0
645.7796	0
646.2044	0
646.6298	0
647.0557	0
647.4822	0
647.9092	0
648.3368	0
648.765	0
649.1937	0
649.623	0
650.0529	0
650.4833	0
650.9143	0
651.3459	0
651.7781	0
652.2108	0
652.6441	0
653.078	0
653.5125	0
653.9475	0
654.3831	0
654.8193	0
655.2561	0
655.6934	0
656.1314	0
656.5699	0
657.009	0
657.4488	0
657.889	0
658.3299	0
658.7714	0
659.2135	0
659.6561	0
660.0994	0
660.5433	0
660.9877	0
661.4328	0
661.8784	0
662.3247	0
662.7715	0
663.219	0
663.667	0
664.1157	0
664.565	0
665.0148	0
665.4653	0
665.9164	0
666.3681	0
666.8205	0
667.2734	0
667.727	0
668.1811	0
668.6359	0
669.0914	0
669.5474	0
670.004	0
670.4613	0
670.9192	0
671.3778	0
671.8369	0
672.2967	0
672.7571	0
673.2182	0
673.6798	0
674.1421	0
674.6051	0
675.0687	0
675.5329	0
675.9977	0
676.4632	0
676.9294	0
677.3962	0
677.8636	0
678.3317	0
678.8004	0
679.2698	0
679.7398	0
680.2104	0
680.6818	0
681.1537	0
681.6264	0
682.0997	0
682.5736	0
683.0482	0
683.5235	0
683.9994	0
684.476	0
684.9532	0
685.4312	0
685.9097	0
686.389	0
686.8689	0
687.3495	0
687.8308	0
688.3127	0
688.7953	0
689.2786	0
689.7626	0
690.2473	0
690.7326	0
691.2186	0
691.7053	0
692.1927	0
692.6808	0
693.1696	0
693.659	0
694.1492	0
694.64	0
695.1316	0
695.6238	0
696.1167	0
696.6104	0
697.1047	0
697.5997	0
698.0955	0
698.5919	0
699.089	0
699.5869	0
700.0855	0
700.5847	0
701.0847	0
701.5854	0
702.0869	0
702.589	0
703.0918	0
703.5954	0
704.0997	0
704.6047	0
705.1105	0
705.617	0
706.1242	0
706.6321	0
707.1407	0
707.6501	0
708.1603	0
708.6711	0
709.1827	0
709.6951	0
710.2082	0
710.722	0
711.2366	0
711.7519	0
712.2679	0
712.7847	0
713.3023	0
713.8206	0
714.3397	0
714.8595	0
715.3801	0
715.9014	0
716.4235	0
716.9464	0
717.47	0
717.9944	0
718.5195	0
719.0455	0
719.5722	0
720.0996	0
720.6279	0
721.1569	0
721.6867	0
722.2173	0
722.7486	0
723.2808	0
723.8137	0
724.3474	0
724.8819	0
725.4172	0
725.9532	0
726.4901	0
727.0278	0
727.5662	0
728.1055	0
728.6455	0
729.1864	0
729.7281	0
730.2705	0
730.8138	0
731.3579	0
731.9028	0
732.4485	0
732.995	0.0001
733.5424	0.0001
734.0905	0.0001
734.6395	0.0001
735.1893	0.0001
735.7399	0.0002
736.2914	0.0002
736.8436	0.0002
737.3967	0.0003
737.9507	0.0003
738.5054	0.0004
739.061	0.0005
739.6175	0.0006
740.1747	0.0007
740.7329	0.0008
741.2918	0.001
741.8516	0.0011
742.4123	0.0014
742.9738	0.0016
743.5361	0.0019
744.0993	0.0022
744.6634	0.0026
745.2283	0.003
745.7941	0.0035
746.3607	0.0041
746.9282	0.0048
747.4965	0.0055
748.0657	0.0064
748.6358	0.0074
749.2068	0.0085
749.7786	0.0098
750.3513	0.0112
750.9249	0.0129
751.4993	0.0147
752.0747	0.0168
752.6509	0.0191
753.228	0.0217
753.806	0.0246
754.3848	0.0278
754.9646	0.0314
755.5452	0.0353
756.1268	0.0397
756.7092	0.0445
757.2926	0.0498
757.8768	0.0557
758.462	0.0621
759.048	0.069
759.635	0.0766
760.2228	0.0849
760.8116	0.0938
761.4013	0.1035
761.9919	0.114
762.5834	0.1252
763.1758	0.1372
763.7692	0.1501
764.3635	0.1639
764.9587	0.1786
765.5548	0.1941
766.1519	0.2106
766.7499	0.2281
767.3488	0.2464
767.9487	0.2657
768.5495	0.2858
769.1512	0.3069
769.7539	0.3289
770.3575	0.3516
770.9621	0.3752
771.5676	0.3995
772.1741	0.4245
772.7816	0.4502
773.39	0.4764
773.9993	0.5031
774.6096	0.5301
775.2209	0.5575
775.8331	0.5851
776.4464	0.6127
777.0605	0.6403
777.6757	0.6678
778.2918	0.695
778.9089	0.7218
779.527	0.7481
780.1461	0.7738
780.7661	0.7986
781.3872	0.8226
782.0092	0.8455
782.6322	0.8672
783.2562	0.8877
783.8812	0.9067
784.5072	0.9242
785.1342	0.9401
785.7622	0.9543
786.3912	0.9667
787.0213	0.9772
787.6523	0.9858
788.2843	0.9924
788.9174	0.997
789.5515	0.9995
790.1866	0.9999
790.8227	0.9983
791.4598	0.9945
792.098	0.9888
792.7372	0.981
793.3774	0.9713
794.0187	0.9597
794.661	0.9462
795.3043	0.931
795.9487	0.9141
796.5942	0.8957
797.2406	0.8758
797.8882	0.8546
798.5368	0.8322
799.1864	0.8086
799.8371	0.7841
800.4889	0.7588
801.1417	0.7328
801.7956	0.7062
802.4505	0.6791
803.1065	0.6517
803.7636	0.6241
804.4218	0.5965
805.0811	0.5689
805.7414	0.5414
806.4028	0.5142
807.0653	0.4874
807.7289	0.4609
808.3936	0.4351
809.0594	0.4098
809.7263	0.3852
810.3943	0.3613
811.0633	0.3382
811.7335	0.3159
812.4048	0.2944
813.0772	0.2739
813.7508	0.2542
814.4254	0.2355
815.1012	0.2177
815.778	0.2008
816.4561	0.1849
817.1352	0.1699
817.8155	0.1557
818.4969	0.1425
819.1794	0.1301
819.8631	0.1185
820.5479	0.1077
821.2338	0.0977
821.921	0.0885
822.6092	0.08
823.2986	0.0721
823.9892	0.0649
824.6809	0.0582
825.3738	0.0522
826.0679	0.0467
826.7631	0.0416
827.4595	0.0371
828.1571	0.033
828.8558	0.0292
829.5558	0.0259
830.2569	0.0228
830.9592	0.0201
831.6627	0.0177
832.3673	0.0155
833.0732	0.0136
833.7803	0.0119
834.4886	0.0104
835.198	0.009
835.9087	0.0078
836.6206	0.0068
837.3337	0.0059
838.0481	0.0051
838.7636	0.0044
839.4804	0.0038
840.1984	0.0032
840.9176	0.0028
841.638	0.0024
842.3597	0.002
843.0827	0.0017
843.8068	0.0014
844.5323	0.0012
845.2589	0.001
845.9868	0.0009
846.716	0.0007
847.4465	0.0006
848.1781	0.0005
848.9111	0.0004
849.6453	0.0004
850.3808	0.0003
851.1176	0.0003
851.8556	0.0002
852.595	0.0002
853.3356	0.0001
854.0775	0.0001
854.8207	0.0001
855.5652	0.0001
856.311	0.0001
857.058	0.0001
857.8064	0
858.5561	0
859.3071	0
860.0595	0
860.8131	0
861.5681	0
862.3244	0
863.082	0
863.8409	0
864.6012	0
865.3629	0
866.1258	0
866.8902	0
867.6558	0
868.4228	0
869.1912	0
869.961	0
870.7321	0
871.5045	0
872.2784	0
873.0536	0
873.8302	0
874.6082	0
875.3876	0
876.1683	0
876.9505	0
877.734	0
878.519	0
879.3053	0
880.0931	0
880.8823	0
881.6729	0
882.4649	0
883.2583	0
884.0532	0
884.8495	0
885.6472	0
886.4464	0
887.247	0
888.0491	0
888.8526	0
889.6576	0
890.464	0
891.2719	0
892.0813	0
892.8921	0
893.7044	0
894.5182	0
895.3335	0
896.1503	0
896.9685	0
897.7883	0
898.6095	0
899.4323	0
900.2565	0
901.0823	0
901.9096	0
902.7384	0
903.5687	0
904.4006	0
905.234	0
906.0689	0
906.9054	0
907.7434	0
908.583	0
909.4241	0
910.2668	0
911.111	0
911.9569	0
912.8042	0
913.6532	0
914.5037	0
915.3559	0
916.2096	0
917.0649	0
917.9218	0
918.7803	0
919.6404	0
920.5022	0
921.3655	0
922.2305	0
923.0971	0
923.9653	0
924.8352	0
925.7067	0
926.5798	0
927.4546	0
928.3311	0
929.2092	0
930.0889	0
930.9704	0
931.8535	0
932.7383	0
933.6247	0
934.5129	0
935.4027	0
936.2942	0
937.1875	0
938.0824	0
938.9791	0
939.8775	0
940.7776	0
941.6794	0
942.5829	0
943.4882	0
944.3952	0
945.304	0
946.2145	0
947.1268	0
948.0408	0
948.9567	0
949.8742	0
950.7936	0
951.7147	0
952.6376	0
953.5623	0
954.4889	0
955.4172	0
956.3473	0
957.2792	0
958.213	0
959.1485	0
960.0859	0
961.0252	0
961.9662	0
962.9092	0
963.8539	0
964.8006	0
965.749	0
966.6994	0
967.6516	0
968.6057	0
969.5617	0
970.5196	0
971.4794	0
972.441	0
973.4046	0
974.3701	0
975.3375	0
976.3068	0
977.2781	0
978.2513	0
979.2264	0
980.2035	0
981.1825	0
982.1635	0
983.1464	0
984.1314	0
985.1183	0
986.1071	0
987.098	0
988.0909	0
989.0857	0
990.0826	0
991.0814	0
992.0823	0
993.0852	0
994.0902	0
995.0972	0
996.1062	0
997.1173	0
998.1304	0
999.1456	0
1000.1628	0
1001.1822	0
1002.2036	0
1003.227	0
1004.2526	0
1005.2803	0
1006.3101	0
1007.342	0
1008.376	0
1009.4122	0
1010.4504	0
1011.4909	0
1012.5334	0
1013.5781	0
1014.625	0
1015.674	0
1016.7252	0
1017.7786	0
1018.8342	0
1019.892	0
1020.9519	0
1022.0141	0
1023.0784	0
1024.145	0
1025.2139	0
1026.2849	0
1027.3582	0
1028.4338	0
1029.5116	0
1030.5916	0
1031.6739	0
1032.7585	0
1033.8454	0
1034.9346	0
1036.0261	0
1037.1199	0
1038.2159	0
1039.3144	0
1040.4151	0
1041.5182	0
1042.6236	0
1043.7313	0
1044.8414	0
1045.9539	0
1047.0688	0
1048.186	0
1049.3056	0
1050.4276	0
1051.5521	0
1052.6789	0
1053.8081	0
1054.9398	0
1056.0739	0
1057.2104	0
1058.3494	0
1059.4909	0
1060.6348	0
1061.7812	0
1062.93	0
1064.0814	0
1065.2352	0
1066.3916	0
1067.5505	0
1068.7118	0
1069.8758	0
1071.0422	0
1072.2112	0
1073.3828	0
1074.5569	0
1075.7336	0
1076.9129	0
1078.0947	0
1079.2792	0
1080.4663	0
1081.6559	0
1082.8482	0
1084.0432	0
1085.2407	0
1086.441	0
1087.6439	0
1088.8494	0
1090.0576	0
1091.2685	0
1092.4821	0
1093.6984	0
1094.9174	0
1096.1392	0
1097.3636	0
1098.5908	0
1099.8208	0
1101.0535	0
1102.289	0
1103.5272	0
1104.7682	0
1106.0121	0
1107.2587	0
1108.5082	0
1109.7604	0
1111.0155	0
1112.2735	0
1113.5343	0
1114.7979	0
1116.0644	0
1117.3339	0
1118.6062	0
1119.8814	0
1121.1595	0
1122.4405	0
1123.7245	0
1125.0114	0
1126.3012	0
1127.594	0
1128.8898	0
1130.1886	0
1131.4904	0
1132.7951	0
1134.1029	0
1135.4137	0
1136.7275	0
1138.0444	0
1139.3643	0
1140.6873	0
1142.0134	0
1143.3426	0
1144.6748	0
1146.0102	0
1147.3487	0
1148.6903	0
1150.035	0
1151.3829	0
1152.734	0
1154.0883	0
1155.4457	0
1156.8063	0
1158.1702	0
1159.5372	0
1160.9075	0
1162.281	0
1163.6578	0
1165.0379	0
1166.4212	0
1167.8078	0
1169.1977	0
1170.591	0
1171.9875	0
1173.3874	0
1174.7906	0
1176.1972	0
1177.6072	0
1179.0206	0
1180.4373	0
1181.8575	0
1183.281	0
1184.7081	0
1186.1385	0
1187.5724	0
1189.0098	0
1190.4507	0
1191.8951	0
1193.343	0
1194.7944	0
1196.2493	0
1197.7078	0
1199.1698	0
